[gd_scene load_steps=2 format=2]

[ext_resource path="res://scripts/replace.gd" type="Script" id=1]

[node name="replace" type="LineEdit"]

anchor_left = 0.0
anchor_top = 0.0
anchor_right = 0.0
anchor_bottom = 0.0
margin_right = 58.0
margin_bottom = 24.0
rect_min_size = Vector2( 30, 24 )
rect_pivot_offset = Vector2( 0, 0 )
focus_previous = NodePath("../../../case_check")
focus_mode = 2
mouse_filter = 0
mouse_default_cursor_shape = 1
size_flags_horizontal = 1
size_flags_vertical = 1
max_length = 1
focus_mode = 2
context_menu_enabled = true
placeholder_alpha = 0.6
caret_blink = false
caret_blink_speed = 0.65
caret_position = 0
script = ExtResource( 1 )
_sections_unfolded = [ "Anchor", "Caret", "Focus", "Grow Direction", "Hint", "Margin", "Mouse", "Placeholder", "Rect", "Size Flags" ]
target = "A"
targ_id = 0

[node name="replace_label" type="Label" parent="." index="2"]

anchor_left = 0.0
anchor_top = 0.0
anchor_right = 0.0
anchor_bottom = 0.0
margin_left = -12.0
margin_top = 6.0
margin_right = -2.0
margin_bottom = 22.0
rect_pivot_offset = Vector2( 0, 0 )
mouse_filter = 2
mouse_default_cursor_shape = 0
size_flags_horizontal = 1
size_flags_vertical = 4
align = 2
percent_visible = 1.0
lines_skipped = 0
max_lines_visible = -1
_sections_unfolded = [ "Anchor", "Focus", "Grow Direction", "Hint", "Margin", "Mouse", "Rect", "Size Flags", "custom_colors", "custom_constants", "custom_fonts", "custom_styles" ]


